IC Michigan Results Covariance
…
Covariance Calculator

This QMD file finds the correlation of event score and total

library(readr)
library(readxl)
library(ggplot2)
library(gtsummary)

Load Data Set

dataMichigan <- read_excel("IC Historical Comp DATA.xlsx",sheet = "Sheet1")
dataMichigan

# A tibble: 75 × 10
   Placing  Cost Presenta…¹ Design Accel…² SkidPad Autoc…³ Endur…⁴ Effic…⁵ Total
     <dbl> <dbl>      <dbl>  <dbl>   <dbl>   <dbl>   <dbl>   <dbl>   <dbl> <dbl>
 1       1  74.7       62.6   147     83.5    56.3   124.     264.    76.8  889.
 2       2  64.1       64.9   125.    79.9    63.7   112.     245.    95.5  850.
 3       3  65.8       55.7   129.    82.0    58.6   108.     231.    78.5  808.
 4       4  62.4       54.9   128.    81.9    44.4   101.     218.    70.8  762.
 5       5  67.1       66.5   101     79.1    50.5    98.0    185.    82.4  730.
 6       6  72.8       61.8   111.    72.1    57.5    89.7    161.    72.7  699.
 7       7  66.0       54.2    90     68.8    53.8    95.8    188.    68.5  685.
 8       8  65.7       56.0   109.    67.0    40.4    83.0    178.    69.4  668.
 9       9  66.7       48.5    93     68.4    52.0    81.1    176.    71.3  657.
10      10  65.0       55.9    96     71.9    39.8    83.9    180.    67.8  660.
# … with 65 more rows, and abbreviated variable names ¹​Presentation,
#   ²​Acceleration, ³​Autocross, ⁴​Endurance, ⁵​Efficiency
…
